{
    "image": "<img src='../assets/imagenDescargaCappi.jpg' alt='Miriam B. Werner' />",
    "label": "Hola mudnooo",
    "body": "<div class='field--name-body'> <p>Lorem ipsum dolor sit amet, consectetur adipiscing elit. Integer posuere vehicula rhoncus. Aenean ac elit lacus. Pellentesque vel commodo nisl. Etiam in auctor ipsum. Nam rutrum risus sit amet aliquam viverra. Mauris efficitur enim in sem blandit, pulvinar tincidunt augue vehicula<p><div>",
    "link": "<div class='field--name-field-link'> <div class='field__item'><a href='/'>Google</a></div><div class='field__item'><a href='/'>app sotore</a></div></div>"
}